module gitlab.com/Orion951/todo_app

go 1.16

require (
	github.com/armon/consul-api v0.0.0-20180202201655-eb2c6b5be1b6 // indirect
	github.com/coreos/go-etcd v2.0.0+incompatible // indirect
	github.com/fsnotify/fsnotify v1.4.9 // indirect
	github.com/gin-gonic/gin v1.6.3 // indirect
	github.com/go-playground/validator/v10 v10.4.1 // indirect
	github.com/golang/protobuf v1.5.1 // indirect
	github.com/json-iterator/go v1.1.10 // indirect
	github.com/leodido/go-urn v1.2.1 // indirect
	github.com/magiconair/properties v1.8.5 // indirect
	github.com/mitchellh/mapstructure v1.4.1 // indirect
	github.com/modern-go/concurrent v0.0.0-20180306012644-bacd9c7ef1dd // indirect
	github.com/modern-go/reflect2 v1.0.1 // indirect
	github.com/pelletier/go-toml v1.8.1 // indirect
	github.com/spf13/afero v1.6.0 // indirect
	github.com/spf13/cast v1.3.1 // indirect
	github.com/spf13/jwalterweatherman v1.1.0 // indirect
	github.com/spf13/pflag v1.0.5 // indirect
	github.com/spf13/viper v1.7.1 // indirect
	github.com/ugorji/go v1.2.4 // indirect
	github.com/xordataexchange/crypt v0.0.3-0.20170626215501-b2862e3d0a77 // indirect
	golang.org/x/crypto v0.0.0-20210322153248-0c34fe9e7dc2 // indirect
	golang.org/x/sys v0.0.0-20210324051608-47abb6519492 // indirect
	golang.org/x/text v0.3.5 // indirect
	gopkg.in/ini.v1 v1.62.0 // indirect
	gopkg.in/yaml.v2 v2.4.0 // indirect
)
